…
``` r
cumulative_ts <- rki_download_cumulative_ts()
cumulative_ts
```

“decumulate” it / create the time series of differences:

``` r
diffs_ts <- rki_extract_diffs(cumulative_ts)
diffs_ts
```

    ## # A tibble: 80 x 15
    ## # Groups:   bundesland, bundesland_iso [16]
    ##    ts_datenstand       ts_download         bundesland bundesland_iso
    ##    <dttm>              <dttm>              <chr>      <chr>         
    ##  1 2020-12-29 07:00:00 2020-12-30 10:09:36 Baden-Wür… BW            
    ##  2 2020-12-30 10:00:00 2020-12-30 19:07:30 Baden-Wür… BW            
    ##  3 2020-12-31 07:30:00 2020-12-31 12:20:43 Baden-Wür… BW            
    ##  4 2021-01-01 11:30:00 2021-01-01 13:31:06 Baden-Wür… BW            
    ##  5 2021-01-02 07:00:00 2021-01-02 14:40:10 Baden-Wür… BW            
    ##  6 2020-12-29 07:00:00 2020-12-30 10:09:36 Bayern     BY            
    ##  7 2020-12-30 10:00:00 2020-12-30 19:07:30 Bayern     BY            
    ##  8 2020-12-31 07:30:00 2020-12-31 12:20:43 Bayern     BY            
    ##  9 2021-01-01 11:30:00 2021-01-01 13:31:06 Bayern     BY            
    ## 10 2021-01-02 07:00:00 2021-01-02 14:40:10 Bayern     BY            
    ## # … with 70 more rows, and 11 more variables: impfungen_neu <dbl>,
    ## #   indikation_nach_alter <dbl>, berufliche_indikation <dbl>,
    ## #   medizinische_indikation <dbl>, pflegeheim_bewohner_in <dbl>, notes <chr>,
    ## #   x8 <chr>, indikation_nach_alter_neu <dbl>,
    ## #   medizinische_indikation_neu <dbl>, berufliche_indikation_neu <dbl>,
    ## #   pflegeheim_bewohner_in_neu <dbl>
…
